<?xml version="1.0" encoding="UTF-8"?>
<glyph name="otilde" format="2">
	<advance width="495"/>
	<unicode hex="00F5"/>
	<outline>
		<component base="o"/>
		<component base="tilde" xOffset="62" yOffset="1"/>
	</outline>
</glyph>
